{
	"topNav":[
		"Главная",
		"Фотопечать",
		"Печать сувениров",
		"Полиграфия",
		"Копицентр",
		"Багетная мастерская",
		"Портфолио",
		"Контакты"
	],
	"printInfo":[
		"Выберите нужный раздел печати",
		"Загрузите фотографии в калькулятор",
		"Оплатите ваш заказ",
		"Заберите заказ в любом пункте выдачи"
	],
	"photoSlider":[
		"//cs540108.vk.me/c540101/v540101193/3790c/VHGBgcHAgL4.jpg",
		"//cs304203.vk.me/v304203383/846d/csh2CykACa0.jpg",
		"//cs628231.vk.me/v628231168/72b6/hhKW0PgZ_eY.jpg",
		"//pp.vk.me/c408319/v408319185/3e82/bcDWafNV550.jpg"
	]
}